Folio: 546.1
Fecha: 15/05/19
Autor: 99802033

1b0efc1240b91e3b46bbd8796d21cd46	grabadorvideo.apk
**************************************************************************************
Folio: 546.1
Fecha: 15/04/19
Autor: 99802033

5c2e2eb7dbf8f3937c92c93e272838e0	grabadorvideo.apk
**************************************************************************************
Folio: 546.1
Fecha: 14/04/19
Autor: 99802033

3f36cff892e890ad2f8dea0d83ff348b	grabadorvideo.apk
**************************************************************************************